uP_testbench/uP_tb.vcd
$date
	Sun Nov 22 23:16:55 2020
$end
$version
	Icarus Verilog
$end
$timescale
	1ps
$end
$scope module testbench $end
$var wire 4 ! data_bus [3:0] $end
$var wire 1 " z_flag $end
$var wire 8 # program_byte [7:0] $end
$var wire 1 $ phase $end
$var wire 4 % oprnd [3:0] $end
$var wire 4 & instr [3:0] $end
$var wire 1 ' c_flag $end
$var wire 12 ( address_RAM [11:0] $end
$var wire 4 ) accu [3:0] $end
$var wire 12 * PC [11:0] $end
$var wire 4 + FF_out [3:0] $end
$var reg 1 , clock $end
$var reg 4 - pushbuttons [3:0] $end
$var reg 1 . reset $end
$scope module uPmodule $end
$var wire 1 , clock $end
$var wire 4 / data_bus [3:0] $end
$var wire 4 0 pushbuttons [3:0] $end
$var wire 1 . reset $end
$var wire 1 " z_flag $end
$var wire 1 1 weRAM $end
$var wire 8 2 program_byte [7:0] $end
$var wire 1 $ phase $end
$var wire 4 3 oprnd [3:0] $end
$var wire 1 4 oeOprnd $end
$var wire 1 5 oeIN $end
$var wire 1 6 oeALU $end
$var wire 4 7 instr [3:0] $end
$var wire 1 8 csRAM $end
$var wire 1 ' c_flag $end
$var wire 12 9 address_RAM [11:0] $end
$var wire 4 : accu [3:0] $end
$var wire 1 ; Z $end
$var wire 4 < Salida_ALU [3:0] $end
$var wire 3 = S [2:0] $end
$var wire 12 > PC [11:0] $end
$var wire 1 ? LoadPC $end
$var wire 1 @ LoadOut $end
$var wire 1 A LoadFlags $end
$var wire 1 B LoadA $end
$var wire 1 C IncPC $end
$var wire 4 D FF_out [3:0] $end
$var wire 1 E C $end
$scope module m1 $end
$var wire 1 , clk $end
$var wire 1 . reset $end
$var wire 12 F loadData [11:0] $end
$var wire 1 ? load $end
$var wire 1 C enabled $end
$var reg 12 G outValue [11:0] $end
$upscope $end
$scope module m10 $end
$var wire 4 H B [3:0] $end
$var wire 4 I F [3:0] $end
$var wire 1 ; Z $end
$var wire 4 J S [3:0] $end
$var wire 1 E C $end
$var wire 4 K A [3:0] $end
$var reg 5 L regS [4:0] $end
$upscope $end
$scope module m11 $end
$var wire 4 M A [3:0] $end
$var wire 4 N Y [3:0] $end
$var wire 1 6 enabled $end
$upscope $end
$scope module m12 $end
$var wire 4 O A [3:0] $end
$var wire 4 P Y [3:0] $end
$var wire 1 5 enabled $end
$upscope $end
$scope module m13 $end
$var wire 1 " Z_flag $end
$var wire 1 1 WeRAM $end
$var wire 3 Q S [2:0] $end
$var wire 1 $ Phase $end
$var wire 1 4 OeOprnd $end
$var wire 1 5 OeIN $end
$var wire 1 6 OeALU $end
$var wire 1 ? LoadPC $end
$var wire 1 @ LoadOut $end
$var wire 1 A LoadFlags $end
$var wire 1 B LoadA $end
$var wire 4 R Instr [3:0] $end
$var wire 1 C IncPC $end
$var wire 7 S Entradas [6:0] $end
$var wire 1 8 CsRAM $end
$var wire 1 ' C_flag $end
$var reg 13 T Salidas [12:0] $end
$upscope $end
$scope module m2 $end
$var wire 12 U address [11:0] $end
$var wire 8 V data [7:0] $end
$upscope $end
$scope module m3 $end
$var wire 8 W D [7:0] $end
$var wire 1 , clk $end
$var wire 1 X enable $end
$var wire 1 . reset $end
$var wire 4 Y oprnd [3:0] $end
$var wire 4 Z instr [3:0] $end
$scope module U1 $end
$var wire 1 [ D $end
$var wire 1 , clk $end
$var wire 1 X enable $end
$var wire 1 . reset $end
$var reg 1 \ Q $end
$upscope $end
$scope module U2 $end
$var wire 1 ] D $end
$var wire 1 , clk $end
$var wire 1 X enable $end
$var wire 1 . reset $end
$var reg 1 ^ Q $end
$upscope $end
$scope module U3 $end
$var wire 1 _ D $end
$var wire 1 , clk $end
$var wire 1 X enable $end
$var wire 1 . reset $end
$var reg 1 ` Q $end
$upscope $end
$scope module U4 $end
$var wire 1 a D $end
$var wire 1 , clk $end
$var wire 1 X enable $end
$var wire 1 . reset $end
$var reg 1 b Q $end
$upscope $end
$scope module U5 $end
$var wire 1 c D $end
$var wire 1 , clk $end
$var wire 1 X enable $end
$var wire 1 . reset $end
$var reg 1 d Q $end
$upscope $end
$scope module U6 $end
$var wire 1 e D $end
$var wire 1 , clk $end
$var wire 1 X enable $end
$var wire 1 . reset $end
$var reg 1 f Q $end
$upscope $end
$scope module U7 $end
$var wire 1 g D $end
$var wire 1 , clk $end
$var wire 1 X enable $end
$var wire 1 . reset $end
$var reg 1 h Q $end
$upscope $end
$scope module U8 $end
$var wire 1 i D $end
$var wire 1 , clk $end
$var wire 1 X enable $end
$var wire 1 . reset $end
$var reg 1 j Q $end
$upscope $end
$upscope $end
$scope module m4 $end
$var wire 1 E C $end
$var wire 1 ; Z $end
$var wire 1 , clk $end
$var wire 1 A enable $end
$var wire 1 . reset $end
$var wire 1 " Q2 $end
$var wire 1 ' Q1 $end
$scope module U1 $end
$var wire 1 E D $end
$var wire 1 , clk $end
$var wire 1 A enable $end
$var wire 1 . reset $end
$var reg 1 ' Q $end
$upscope $end
$scope module U2 $end
$var wire 1 ; D $end
$var wire 1 , clk $end
$var wire 1 A enable $end
$var wire 1 . reset $end
$var reg 1 " Q $end
$upscope $end
$upscope $end
$scope module m5 $end
$var wire 1 , clk $end
$var wire 1 . reset $end
$var wire 1 $ Q $end
$scope module U1 $end
$var wire 1 k D $end
$var wire 1 , clk $end
$var wire 1 . reset $end
$var reg 1 $ Q $end
$upscope $end
$upscope $end
$scope module m6 $end
$var wire 4 l A [3:0] $end
$var wire 4 m Y [3:0] $end
$var wire 1 4 enabled $end
$upscope $end
$scope module m7 $end
$var wire 1 8 chips $end
$var wire 4 n data [3:0] $end
$var wire 1 1 enableRW $end
$var wire 4 o oprnd [3:0] $end
$var wire 8 p program_byte [7:0] $end
$var wire 12 q address [11:0] $end
$var reg 4 r data_out [3:0] $end
$upscope $end
$scope module m8 $end
$var wire 4 s D [3:0] $end
$var wire 1 , clk $end
$var wire 1 @ enabled $end
$var wire 1 . reset $end
$var reg 4 t Q [3:0] $end
$upscope $end
$scope module m9 $end
$var wire 4 u D [3:0] $end
$var wire 1 , clk $end
$var wire 1 B enable $end
$var wire 1 . reset $end
$var reg 4 v Q [3:0] $end
$upscope $end
$upscope $end
$upscope $end
$enddefinitions $end
#0
$dumpvars
bx v
b101 u
bx t
bx s
bx r
bx q
bx p
bx o
bx n
bx m
bx l
xk
xj
xi
xh
xg
xf
xe
xd
xc
xb
xa
x`
x_
x^
x]
x\
x[
bx Z
bx Y
xX
bx W
bx V
bx U
bx T
bx S
bx R
bx Q
bx P
b110 O
bx N
b101 M
b10101 L
bx K
b101 J
b0xxx I
bx H
bx G
bx F
1E
bx D
xC
xB
xA
x@
x?
bx >
bx =
b101 <
0;
bx :
bx 9
x8
bx 7
x6
x5
x4
bx 3
bx 2
x1
b110 0
bx /
0.
b110 -
0,
bx +
bx *
bx )
bx (
x'
bx &
bx %
x$
bx #
x"
bx !
$end
#2
1;
b0 <
b0 J
b0 M
b0 u
0E
b0 !
b0 /
b0 H
b0 N
b0 P
b0 m
b0 n
b0 s
b0 L
1C
0?
0B
0A
b0 I
b0 =
b0 Q
08
01
16
05
04
0@
b1000000001000 T
0[
1]
0_
0a
1c
1e
1g
1i
1k
1X
b1001111 #
b1001111 2
b1001111 V
b1001111 W
b1001111 p
b0 *
b0 >
b0 G
b0 U
0\
0^
0`
b0 &
b0 7
b0 R
b0 Z
0b
0d
0f
0h
b1001111 (
b1001111 9
b1001111 F
b1001111 q
b0 %
b0 3
b0 Y
b0 l
b0 o
0j
0'
0"
b0 S
0$
b0 +
b0 D
b0 t
b0 )
b0 :
b0 K
b0 v
1.
#3
0.
#5
0;
b1111 <
b1111 J
b1111 M
b1111 u
b1111 L
b1111 !
b1111 /
b1111 H
b1111 N
b1111 P
b1111 m
b1111 n
b1111 s
0C
1B
1A
b10 I
b10 =
b10 Q
06
14
b11010000010 T
0k
0X
1[
1a
1$
1j
1h
1f
b1111 %
b1111 3
b1111 Y
b1111 l
b1111 o
1d
b100001 S
b100 &
b100 7
b100 R
b100 Z
1^
b111111011111 (
b111111011111 9
b111111011111 F
b111111011111 q
b11011111 #
b11011111 2
b11011111 V
b11011111 W
b11011111 p
b1 *
b1 >
b1 G
b1 U
1,
#10
0,
#15
b1111 !
b1111 /
b1111 H
b1111 N
b1111 P
b1111 m
b1111 n
b1111 s
1C
0B
0A
b0 I
b0 =
b0 Q
16
04
b1000000001000 T
1k
1X
b100000 S
0$
b1111 )
b1111 :
b1111 K
b1111 v
1,
#20
0,
#25
0C
1@
b1001 T
0k
0X
0[
0c
0e
0g
1$
1b
b1101001 S
b1101 &
b1101 7
b1101 R
b1101 Z
1\
b111101010001 (
b111101010001 9
b111101010001 F
b111101010001 q
b1010001 #
b1010001 2
b1010001 V
b1010001 W
b1010001 p
b10 *
b10 >
b10 G
b10 U
1,
#30
0,
#35
1C
0@
b1000000001000 T
1k
1X
b1101000 S
0$
b1111 +
b1111 D
b1111 t
1,
#40
0,
#45
b110 <
b110 J
b110 M
b110 u
b110 L
b110 !
b110 /
b110 H
b110 N
b110 P
b110 m
b110 n
b110 s
0C
1B
1A
b10 I
b10 =
b10 Q
06
15
b11010000100 T
0k
0X
0a
0i
1$
0h
0f
b1 %
b1 3
b1 Y
b1 l
b1 o
0d
b101001 S
b101 &
b101 7
b101 R
b101 Z
0\
b101000000 (
b101000000 9
b101000000 F
b101000000 q
b1000000 #
b1000000 2
b1000000 V
b1000000 W
b1000000 p
b11 *
b11 >
b11 G
b11 U
1,
#50
0,
#55
b110 !
b110 /
b110 H
b110 N
b110 P
b110 m
b110 n
b110 s
1C
0B
0A
b0 I
b0 =
b0 Q
16
05
b1000000001000 T
1k
1X
b101000 S
0$
b110 )
b110 :
b110 K
b110 v
1,
#60
0,
#65
1;
b0 <
b0 J
b0 M
b0 u
b0 L
b0 !
b0 /
b0 H
b0 N
b0 P
b0 m
b0 n
b0 s
0C
1B
1A
b10 I
b10 =
b10 Q
06
14
b11010000010 T
0k
0X
1c
1e
1g
1i
1$
b0 %
b0 3
b0 Y
b0 l
b0 o
0j
b100001 S
b100 &
b100 7
b100 R
b100 Z
0b
b1001111 (
b1001111 9
b1001111 F
b1001111 q
b1001111 #
b1001111 2
b1001111 V
b1001111 W
b1001111 p
b100 *
b100 >
b100 G
b100 U
1,
#70
0,
#75
b0 !
b0 /
b0 H
b0 N
b0 P
b0 m
b0 n
b0 s
1C
0B
0A
b0 I
b0 =
b0 Q
16
04
b1000000001000 T
1k
1X
1"
b100010 S
0$
b0 )
b0 :
b0 K
b0 v
1,
#80
0,
#85
0;
b1111 <
b1111 J
b1111 M
b1111 u
b1111 L
b1111 !
b1111 /
b1111 H
b1111 N
b1111 P
b1111 m
b1111 n
b1111 s
0C
1B
1A
b10 I
b10 =
b10 Q
06
14
b11010000010 T
0k
0X
1[
0]
1_
0e
0i
b100011 S
1$
1j
1h
1f
b1111 %
b1111 3
b1111 Y
b1111 l
b1111 o
1d
b111110101010 (
b111110101010 9
b111110101010 F
b111110101010 q
b10101010 #
b10101010 2
b10101010 V
b10101010 W
b10101010 p
b101 *
b101 >
b101 G
b101 U
1,
#90
0,
#95
b1111 !
b1111 /
b1111 H
b1111 N
b1111 P
b1111 m
b1111 n
b1111 s
1C
0B
0A
b0 I
b0 =
b0 Q
16
04
b1000000001000 T
1k
1X
0"
b100000 S
0$
b1111 )
b1111 :
b1111 K
b1111 v
1,
#100
0,
#105
b1001 <
b1001 J
b1001 M
b1001 u
1E
b11001 L
b1010 !
b1010 /
b1010 H
b1010 N
b1010 P
b1010 m
b1010 n
b1010 s
0C
1B
1A
b11 I
b11 =
b11 Q
06
14
b11011000010 T
0k
0X
0[
0g
1$
0j
b1010 %
b1010 3
b1010 Y
b1010 l
b1010 o
0f
1`
0^
b1010001 S
b1010 &
b1010 7
b1010 R
b1010 Z
1\
b101000101000 (
b101000101000 9
b101000101000 F
b101000101000 q
b101000 #
b101000 2
b101000 V
b101000 W
b101000 p
b110 *
b110 >
b110 G
b110 U
1,
#110
0,
#115
0E
b1001 !
b1001 /
b1001 H
b1001 N
b1001 P
b1001 m
b1001 n
b1001 s
1C
0B
0A
b0 I
b0 =
b0 Q
16
04
b1000000001000 T
b1001 <
b1001 J
b1001 M
b1001 u
1k
1X
b1001 L
1'
b1010100 S
0$
b1001 )
b1001 :
b1001 K
b1001 v
1,
#120
0,
#125
b1 <
b1 J
b1 M
b1 u
b1 L
b1000 !
b1000 /
b1000 H
b1000 N
b1000 P
b1000 m
b1000 n
b1000 s
0C
1A
b1 I
b1 =
b1 Q
06
14
b1001000010 T
0k
0X
1]
0_
1g
1$
b1000 %
b1000 3
b1000 Y
b1000 l
b1000 o
0h
b10101 S
b10 &
b10 7
b10 R
b10 Z
0\
b100001001010 (
b100001001010 9
b100001001010 F
b100001001010 q
b1001010 #
b1001010 2
b1001010 V
b1001010 W
b1001010 p
b111 *
b111 >
b111 G
b111 U
1,
#130
0,
#135
b1001 <
b1001 J
b1001 M
b1001 u
b1001 L
b1001 !
b1001 /
b1001 H
b1001 N
b1001 P
b1001 m
b1001 n
b1001 s
1C
0A
b0 I
b0 =
b0 Q
16
04
b1000000001000 T
1k
1X
0'
b10000 S
0$
1,
#140
0,
#145
b1010 <
b1010 J
b1010 M
b1010 u
b1010 L
b1010 !
b1010 /
b1010 H
b1010 N
b1010 P
b1010 m
b1010 n
b1010 s
0C
1B
1A
b10 I
b10 =
b10 Q
06
14
b11010000010 T
0k
0X
0]
1_
1e
0g
1$
b1010 %
b1010 3
b1010 Y
b1010 l
b1010 o
1h
0`
b100001 S
b100 &
b100 7
b100 R
b100 Z
1^
b101000101100 (
b101000101100 9
b101000101100 F
b101000101100 q
b101100 #
b101100 2
b101100 V
b101100 W
b101100 p
b1000 *
b1000 >
b1000 G
b1000 U
1,
#150
0,
#155
b1010 !
b1010 /
b1010 H
b1010 N
b1010 P
b1010 m
b1010 n
b1010 s
1C
0B
0A
b0 I
b0 =
b0 Q
16
04
b1000000001000 T
1k
1X
b100000 S
0$
b1010 )
b1010 :
b1010 K
b1010 v
1,
#160
0,
#165
b1110 <
b1110 J
b1110 M
b1110 u
1E
b11110 L
b1100 !
b1100 /
b1100 H
b1100 N
b1100 P
b1100 m
b1100 n
b1100 s
0C
1A
b1 I
b1 =
b1 Q
06
14
b1001000010 T
0k
0X
1[
0c
0e
1i
1$
0h
b1100 %
b1100 3
b1100 Y
b1100 l
b1100 o
1f
1`
b10001 S
b10 &
b10 7
b10 R
b10 Z
0^
b110010100001 (
b110010100001 9
b110010100001 F
b110010100001 q
b10100001 #
b10100001 2
b10100001 V
b10100001 W
b10100001 p
b1001 *
b1001 >
b1001 G
b1001 U
1,
#170
0,
#175
b1010 <
b1010 J
b1010 M
b1010 u
0E
b1010 L
b1010 !
b1010 /
b1010 H
b1010 N
b1010 P
b1010 m
b1010 n
b1010 s
1C
0A
b0 I
b0 =
b0 Q
16
04
b1000000001000 T
1k
1X
1'
b10100 S
0$
1,
#180
0,
#185
b1011 <
b1011 J
b1011 M
b1011 u
b1011 L
b1 !
b1 /
b1 H
b1 N
b1 P
b1 m
b1 n
b1 s
0C
1B
1A
b11 I
b11 =
b11 Q
06
14
b11011000010 T
0k
0X
1]
1c
1g
1$
1j
0f
b1 %
b1 3
b1 Y
b1 l
b1 o
0d
b1010101 S
b1010 &
b1010 7
b1010 R
b1010 Z
1\
b111101011 (
b111101011 9
b111101011 F
b111101011 q
b11101011 #
b11101011 2
b11101011 V
b11101011 W
b11101011 p
b1010 *
b1010 >
b1010 G
b1010 U
1,
#190
0,
#195
b1011 !
b1011 /
b1011 H
b1011 N
b1011 P
b1011 m
b1011 n
b1011 s
1C
0B
0A
b0 I
b0 =
b0 Q
16
04
b1000000001000 T
b1011 <
b1011 J
b1011 M
b1011 u
1k
1X
b1011 L
0'
b1010000 S
0$
b1011 )
b1011 :
b1011 K
b1011 v
1,
#200
0,
#205
b100 <
b100 J
b100 M
b100 u
b100 L
0C
1B
1A
b100 I
b100 =
b100 Q
06
14
b11100000010 T
0k
0X
0_
1a
0c
0g
0i
1$
1h
b1011 %
b1011 3
b1011 Y
b1011 l
b1011 o
1d
b1110001 S
b1110 &
b1110 7
b1110 R
b1110 Z
1^
b101111010000 (
b101111010000 9
b101111010000 F
b101111010000 q
b11010000 #
b11010000 2
b11010000 V
b11010000 W
b11010000 p
b1011 *
b1011 >
b1011 G
b1011 U
1,
#210
0,
#215
b100 !
b100 /
b100 H
b100 N
b100 P
b100 m
b100 n
b100 s
1C
0B
0A
b0 I
b0 =
b0 Q
16
04
b1000000001000 T
b100 <
b100 J
b100 M
b100 u
1k
1X
b100 L
b1110000 S
0$
b100 )
b100 :
b100 K
b100 v
1,
#220
0,
#225
0C
1@
b1001 T
0k
0X
0[
1$
0j
0h
b0 %
b0 3
b0 Y
b0 l
b0 o
0d
1b
b1101001 S
b1101 &
b1101 7
b1101 R
b1101 Z
0`
b1010000 (
b1010000 9
b1010000 F
b1010000 q
b1010000 #
b1010000 2
b1010000 V
b1010000 W
b1010000 p
b1100 *
b1100 >
b1100 G
b1100 U
1,
#230
0,
#235
1C
0@
b1000000001000 T
1k
1X
b1101000 S
0$
b100 +
b100 D
b100 t
1,
#240
0,
#245
b110 <
b110 J
b110 M
b110 u
b110 L
b110 !
b110 /
b110 H
b110 N
b110 P
b110 m
b110 n
b110 s
0C
1B
1A
b10 I
b10 =
b10 Q
06
15
b11010000100 T
0k
0X
1_
1$
b101001 S
b101 &
b101 7
b101 R
b101 Z
0\
b1110000 (
b1110000 9
b1110000 F
b1110000 q
b1110000 #
b1110000 2
b1110000 V
b1110000 W
b1110000 p
b1101 *
b1101 >
b1101 G
b1101 U
1,
#250
0,
#255
b110 !
b110 /
b110 H
b110 N
b110 P
b110 m
b110 n
b110 s
1C
0B
0A
b0 I
b0 =
b0 Q
16
05
b1000000001000 T
1k
1X
b101000 S
0$
b110 )
b110 :
b110 K
b110 v
1,
#260
0,
#265
18
11
b1000000111000 T
0k
0X
0]
0_
0a
1$
b111001 S
b111 &
b111 7
b111 R
b111 Z
1`
b0 (
b0 9
b0 F
b0 q
b0 #
b0 2
b0 V
b0 W
b0 p
b1110 *
b1110 >
b1110 G
b1110 U
1,
#270
0,
#275
08
01
b1000000001000 T
1]
1c
1e
1g
1i
1k
1X
b1001111 (
b1001111 9
b1001111 F
b1001111 q
b1001111 #
b1001111 2
b1001111 V
b1001111 W
b1001111 p
b1111 *
b1111 >
b1111 G
b1111 U
b111000 S
0$
1,
#280
0,
#285
b1111 <
b1111 J
b1111 M
b1111 u
b1111 L
b1111 !
b1111 /
b1111 H
b1111 N
b1111 P
b1111 m
b1111 n
b1111 s
0C
1B
1A
b10 I
b10 =
b10 Q
06
14
b11010000010 T
0k
0X
1_
1a
0c
0e
0g
1$
1j
1h
1f
b1111 %
b1111 3
b1111 Y
b1111 l
b1111 o
1d
0b
b100001 S
b100 &
b100 7
b100 R
b100 Z
0`
b111101110001 (
b111101110001 9
b111101110001 F
b111101110001 q
b1110001 #
b1110001 2
b1110001 V
b1110001 W
b1110001 p
b10000 *
b10000 >
b10000 G
b10000 U
1,
#290
0,
#295
b1111 !
b1111 /
b1111 H
b1111 N
b1111 P
b1111 m
b1111 n
b1111 s
1C
0B
0A
b0 I
b0 =
b0 Q
16
04
b1000000001000 T
1k
1X
b100000 S
0$
b1111 )
b1111 :
b1111 K
b1111 v
1,
#300
0,
#305
18
11
b1000000111000 T
0k
0X
0]
0_
1$
0h
0f
b1 %
b1 3
b1 Y
b1 l
b1 o
0d
1b
b111001 S
b111 &
b111 7
b111 R
b111 Z
1`
b100010001 (
b100010001 9
b100010001 F
b100010001 q
b10001 #
b10001 2
b10001 V
b10001 W
b10001 p
b10001 *
b10001 >
b10001 G
b10001 U
1,
#310
0,
#315
08
01
b1000000001000 T
1]
0a
1c
1g
0i
1k
1X
b101001010 (
b101001010 9
b101001010 F
b101001010 q
b1001010 #
b1001010 2
b1001010 V
b1001010 W
b1001010 p
b10010 *
b10010 >
b10010 G
b10010 U
b111000 S
0$
1,
#320
0,
#325
b1010 <
b1010 J
b1010 M
b1010 u
b1010 L
b1010 !
b1010 /
b1010 H
b1010 N
b1010 P
b1010 m
b1010 n
b1010 s
0C
1B
1A
b10 I
b10 =
b10 Q
06
14
b11010000010 T
0k
0X
1_
1a
0c
1$
0j
1h
b1010 %
b1010 3
b1010 Y
b1010 l
b1010 o
1d
0b
b100001 S
b100 &
b100 7
b100 R
b100 Z
0`
b101001110010 (
b101001110010 9
b101001110010 F
b101001110010 q
b1110010 #
b1110010 2
b1110010 V
b1110010 W
b1110010 p
b10011 *
b10011 >
b10011 G
b10011 U
1,
#330
0,
#335
b1010 !
b1010 /
b1010 H
b1010 N
b1010 P
b1010 m
b1010 n
b1010 s
1C
0B
0A
b0 I
b0 =
b0 Q
16
04
b1000000001000 T
1k
1X
b100000 S
0$
b1010 )
b1010 :
b1010 K
b1010 v
1,
#340
0,
#345
18
11
b1000000111000 T
0k
0X
0]
0a
1$
b10 %
b10 3
b10 Y
b10 l
b10 o
0d
1b
b111001 S
b111 &
b111 7
b111 R
b111 Z
1`
b1000100010 (
b1000100010 9
b1000100010 F
b1000100010 q
b100010 #
b100010 2
b100010 V
b100010 W
b100010 p
b10100 *
b10100 >
b10100 G
b10100 U
1,
#350
0,
#355
08
01
b1000000001000 T
1]
0_
0g
1i
1k
1X
b1001000001 (
b1001000001 9
b1001000001 F
b1001000001 q
b1000001 #
b1000001 2
b1000001 V
b1000001 W
b1000001 p
b10101 *
b10101 >
b10101 G
b10101 U
b111000 S
0$
1,
#360
0,
#365
b1 <
b1 J
b1 M
b1 u
b1 L
b1 !
b1 /
b1 H
b1 N
b1 P
b1 m
b1 n
b1 s
0C
1B
1A
b10 I
b10 =
b10 Q
06
14
b11010000010 T
0k
0X
1_
1a
1g
1$
1j
b1 %
b1 3
b1 Y
b1 l
b1 o
0h
0b
b100001 S
b100 &
b100 7
b100 R
b100 Z
0`
b101110011 (
b101110011 9
b101110011 F
b101110011 q
b1110011 #
b1110011 2
b1110011 V
b1110011 W
b1110011 p
b10110 *
b10110 >
b10110 G
b10110 U
1,
#370
0,
#375
b1 !
b1 /
b1 H
b1 N
b1 P
b1 m
b1 n
b1 s
1C
0B
0A
b0 I
b0 =
b0 Q
16
04
b1000000001000 T
1k
1X
b100000 S
0$
b1 )
b1 :
b1 K
b1 v
1,
#380
0,
#385
18
11
b1000000111000 T
0k
0X
0]
1$
b11 %
b11 3
b11 Y
b11 l
b11 o
1h
1b
b111001 S
b111 &
b111 7
b111 R
b111 Z
1`
b1100110011 (
b1100110011 9
b1100110011 F
b1100110011 q
b110011 #
b110011 2
b110011 V
b110011 W
b110011 p
b10111 *
b10111 >
b10111 G
b10111 U
1,
#390
0,
#395
08
01
b1000000001000 T
1]
0a
0g
0i
1k
1X
b1101100000 (
b1101100000 9
b1101100000 F
b1101100000 q
b1100000 #
b1100000 2
b1100000 V
b1100000 W
b1100000 p
b11000 *
b11000 >
b11000 G
b11000 U
b111000 S
0$
1,
#400
0,
#405
0;
b110 <
b110 J
b110 M
b110 u
b110 L
b110 r
b110 !
b110 /
b110 H
b110 N
b110 P
b110 m
b110 n
b110 s
1B
1A
b10 I
b10 =
b10 Q
18
06
b1011010100000 T
0k
0X
0]
0_
1$
0j
b0 %
b0 3
b0 Y
b0 l
b0 o
0h
b110001 S
b110 &
b110 7
b110 R
b110 Z
0b
b0 (
b0 9
b0 F
b0 q
b0 #
b0 2
b0 V
b0 W
b0 p
b11001 *
b11001 >
b11001 G
b11001 U
1,
#410
0,
#415
0B
0A
b0 I
b0 =
b0 Q
08
16
b1000000001000 T
0;
b110 <
b110 J
b110 M
b110 u
b110 L
b110 !
b110 /
b110 H
b110 N
b110 P
b110 m
b110 n
b110 s
1]
1_
1i
bx r
1k
1X
b1100001 (
b1100001 9
b1100001 F
b1100001 q
b1100001 #
b1100001 2
b1100001 V
b1100001 W
b1100001 p
b11010 *
b11010 >
b11010 G
b11010 U
b110000 S
0$
b110 )
b110 :
b110 K
b110 v
1,
#420
0,
#425
b1111 <
b1111 J
b1111 M
b1111 u
b1111 L
b1111 r
b1111 !
b1111 /
b1111 H
b1111 N
b1111 P
b1111 m
b1111 n
b1111 s
1B
1A
b10 I
b10 =
b10 Q
18
06
b1011010100000 T
0k
0X
0]
0_
1a
b110001 S
1$
b1 %
b1 3
b1 Y
b1 l
b1 o
1j
b100010001 (
b100010001 9
b100010001 F
b100010001 q
b10001 #
b10001 2
b10001 V
b10001 W
b10001 p
b11011 *
b11011 >
b11011 G
b11011 U
1,
#430
0,
#435
0B
0A
b0 I
b0 =
b0 Q
08
16
b1000000001000 T
0;
b1111 <
b1111 J
b1111 M
b1111 u
b1111 L
b1111 !
b1111 /
b1111 H
b1111 N
b1111 P
b1111 m
b1111 n
b1111 s
1]
1_
0a
1g
0i
bx r
1k
1X
b101100010 (
b101100010 9
b101100010 F
b101100010 q
b1100010 #
b1100010 2
b1100010 V
b1100010 W
b1100010 p
b11100 *
b11100 >
b11100 G
b11100 U
b110000 S
0$
b1111 )
b1111 :
b1111 K
b1111 v
1,
#440
0,
#445
b1010 <
b1010 J
b1010 M
b1010 u
b1010 L
b1010 r
b1010 !
b1010 /
b1010 H
b1010 N
b1010 P
b1010 m
b1010 n
b1010 s
1B
1A
b10 I
b10 =
b10 Q
18
06
b1011010100000 T
0k
0X
0]
b110001 S
1$
0j
b10 %
b10 3
b10 Y
b10 l
b10 o
1h
b1000100010 (
b1000100010 9
b1000100010 F
b1000100010 q
b100010 #
b100010 2
b100010 V
b100010 W
b100010 p
b11101 *
b11101 >
b11101 G
b11101 U
1,
#450
0,
#455
0B
0A
b0 I
b0 =
b0 Q
08
16
b1000000001000 T
0;
b1010 <
b1010 J
b1010 M
b1010 u
b1010 L
b1010 !
b1010 /
b1010 H
b1010 N
b1010 P
b1010 m
b1010 n
b1010 s
1]
1i
bx r
1k
1X
b1001100011 (
b1001100011 9
b1001100011 F
b1001100011 q
b1100011 #
b1100011 2
b1100011 V
b1100011 W
b1100011 p
b11110 *
b11110 >
b11110 G
b11110 U
b110000 S
0$
b1010 )
b1010 :
b1010 K
b1010 v
1,
#460
0,
#465
b1 <
b1 J
b1 M
b1 u
b1 L
b1 r
b1 !
b1 /
b1 H
b1 N
b1 P
b1 m
b1 n
b1 s
1B
1A
b10 I
b10 =
b10 Q
18
06
b1011010100000 T
0k
0X
0]
1a
b110001 S
1$
b11 %
b11 3
b11 Y
b11 l
b11 o
1j
b1100110011 (
b1100110011 9
b1100110011 F
b1100110011 q
b110011 #
b110011 2
b110011 V
b110011 W
b110011 p
b11111 *
b11111 >
b11111 G
b11111 U
1,
#470
0,
#475
0B
0A
b0 I
b0 =
b0 Q
08
16
b1000000001000 T
0;
b1 <
b1 J
b1 M
b1 u
b1 L
b1 !
b1 /
b1 H
b1 N
b1 P
b1 m
b1 n
b1 s
1]
0_
0a
1c
0i
bx r
1k
1X
b1101001010 (
b1101001010 9
b1101001010 F
b1101001010 q
b1001010 #
b1001010 2
b1001010 V
b1001010 W
b1001010 p
b100000 *
b100000 >
b100000 G
b100000 U
b110000 S
0$
b1 )
b1 :
b1 K
b1 v
1,
#480
0,
#485
0;
b1010 <
b1010 J
b1010 M
b1010 u
b1010 L
b1010 !
b1010 /
b1010 H
b1010 N
b1010 P
b1010 m
b1010 n
b1010 s
0C
1B
1A
b10 I
b10 =
b10 Q
06
14
b11010000010 T
0k
0X
1[
1_
1a
0c
1$
0j
b1010 %
b1010 3
b1010 Y
b1010 l
b1010 o
1d
b100001 S
b100 &
b100 7
b100 R
b100 Z
0`
b101011110010 (
b101011110010 9
b101011110010 F
b101011110010 q
b11110010 #
b11110010 2
b11110010 V
b11110010 W
b11110010 p
b100001 *
b100001 >
b100001 G
b100001 U
1,
#490
0,
#495
b1010 !
b1010 /
b1010 H
b1010 N
b1010 P
b1010 m
b1010 n
b1010 s
1C
0B
0A
b0 I
b0 =
b0 Q
16
04
b1000000001000 T
1k
1X
b100000 S
0$
b1010 )
b1010 :
b1010 K
b1010 v
1,
#500
0,
#505
b101 <
b101 J
b101 M
b101 u
b101 L
b1010 r
b1010 !
b1010 /
b1010 H
b1010 N
b1010 P
b1010 m
b1010 n
b1010 s
1B
1A
b100 I
b100 =
b100 Q
18
06
b1011100100000 T
0k
0X
0[
0]
0a
1$
b10 %
b10 3
b10 Y
b10 l
b10 o
0d
1b
1`
b1111001 S
b1111 &
b1111 7
b1111 R
b1111 Z
1\
b1000100010 (
b1000100010 9
b1000100010 F
b1000100010 q
b100010 #
b100010 2
b100010 V
b100010 W
b100010 p
b100010 *
b100010 >
b100010 G
b100010 U
1,
#510
0,
#515
0B
0A
b0 I
b0 =
b0 Q
08
16
b1000000001000 T
b101 !
b101 /
b101 H
b101 N
b101 P
b101 m
b101 n
b101 s
b101 <
b101 J
b101 M
b101 u
1]
0_
1c
1e
1i
bx r
1k
1X
b101 L
b1001001111 (
b1001001111 9
b1001001111 F
b1001001111 q
b1001111 #
b1001111 2
b1001111 V
b1001111 W
b1001111 p
b100011 *
b100011 >
b100011 G
b100011 U
b1111000 S
0$
b101 )
b101 :
b101 K
b101 v
1,
#520
0,
