Proyecto final/uP/uP_tb.vcd
$date
	Sun Nov 22 19:57:11 2020
$end
$version
	Icarus Verilog
$end
$timescale
	1ps
$end
$scope module testbench $end
$var wire 4 ! data_bus [3:0] $end
$var wire 1 " z_flag $end
$var wire 8 # program_byte [7:0] $end
$var wire 1 $ phase $end
$var wire 4 % oprnd [3:0] $end
$var wire 4 & instr [3:0] $end
$var wire 1 ' c_flag $end
$var wire 12 ( address_RAM [11:0] $end
$var wire 4 ) accu [3:0] $end
$var wire 12 * PC [11:0] $end
$var wire 4 + FF_out [3:0] $end
$var reg 1 , clock $end
$var reg 4 - pushbuttons [3:0] $end
$var reg 1 . reset $end
$var integer 32 / immediateDelay [31:0] $end
$var integer 32 0 jumpDelay [31:0] $end
$var integer 32 1 memoryDelay [31:0] $end
$var integer 32 2 nota [31:0] $end
$scope module uPmodule $end
$var wire 1 , clock $end
$var wire 4 3 data_bus [3:0] $end
$var wire 4 4 pushbuttons [3:0] $end
$var wire 1 . reset $end
$var wire 1 " z_flag $end
$var wire 1 5 z0 $end
$var wire 1 6 weRAM $end
$var wire 8 7 program_byte [7:0] $end
$var wire 1 $ phase $end
$var wire 4 8 oprnd [3:0] $end
$var wire 1 9 oeOprnd $end
$var wire 1 : oeIN $end
$var wire 1 ; oeALU $end
$var wire 1 < loadPC $end
$var wire 1 = loadOut $end
$var wire 1 > loadFlags $end
$var wire 1 ? loadA $end
$var wire 4 @ instr [3:0] $end
$var wire 1 A incPC $end
$var wire 8 B enFetch [7:0] $end
$var wire 1 C csRAM $end
$var wire 1 ' c_flag $end
$var wire 1 D c $end
$var wire 4 E aluResult [3:0] $end
$var wire 12 F address_RAM [11:0] $end
$var wire 4 G accu [3:0] $end
$var wire 1 H S2 $end
$var wire 1 I S1 $end
$var wire 1 J S0 $end
$var wire 12 K PC [11:0] $end
$var wire 4 L FF_out [3:0] $end
$scope module U1 $end
$var wire 1 , clk $end
$var wire 1 A enabled $end
$var wire 1 < load $end
$var wire 12 M loadData [11:0] $end
$var wire 1 . reset $end
$var reg 12 N outValue [11:0] $end
$upscope $end
$scope module U10 $end
$var wire 7 O address [6:0] $end
$var wire 13 P signals [12:0] $end
$var reg 13 Q signalsReg [12:0] $end
$upscope $end
$scope module U11 $end
$var wire 12 R address_ram [11:0] $end
$var wire 1 C csRAM $end
$var wire 4 S data [3:0] $end
$var wire 1 6 weRAM $end
$var reg 4 T salida [3:0] $end
$upscope $end
$scope module U12 $end
$var wire 4 U D [3:0] $end
$var wire 1 , clk $end
$var wire 1 = enabled $end
$var wire 1 . reset $end
$var reg 4 V Q [3:0] $end
$upscope $end
$scope module U13 $end
$var wire 4 W A [3:0] $end
$var wire 4 X Y [3:0] $end
$var wire 1 : enabled $end
$upscope $end
$scope module U2 $end
$var wire 12 Y address [11:0] $end
$var wire 8 Z data [7:0] $end
$upscope $end
$scope module U3 $end
$var wire 8 [ D [7:0] $end
$var wire 1 , clk $end
$var wire 1 \ enabled $end
$var wire 1 . reset $end
$var reg 8 ] Q [7:0] $end
$upscope $end
$scope module U4 $end
$var wire 4 ^ A [3:0] $end
$var wire 4 _ Y [3:0] $end
$var wire 1 9 enabled $end
$upscope $end
$scope module U5 $end
$var wire 4 ` Y [3:0] $end
$var wire 1 ; enabled $end
$var wire 4 a A [3:0] $end
$upscope $end
$scope module U6 $end
$var wire 4 b B [3:0] $end
$var wire 3 c F [2:0] $end
$var wire 1 5 Z $end
$var wire 4 d S [3:0] $end
$var wire 1 D C $end
$var wire 4 e A [3:0] $end
$var reg 5 f regS [4:0] $end
$upscope $end
$scope module U7 $end
$var wire 4 g D [3:0] $end
$var wire 1 , clk $end
$var wire 1 ? enabled $end
$var wire 1 . reset $end
$var reg 4 h Q [3:0] $end
$upscope $end
$scope module U8 $end
$var wire 2 i D [1:0] $end
$var wire 1 , clk $end
$var wire 1 > enabled $end
$var wire 1 . reset $end
$var wire 2 j Q [1:0] $end
$scope module U0 $end
$var wire 1 k D $end
$var wire 1 , clk $end
$var wire 1 > enabled $end
$var wire 1 . reset $end
$var reg 1 l Q $end
$upscope $end
$scope module U1 $end
$var wire 1 m D $end
$var wire 1 , clk $end
$var wire 1 > enabled $end
$var wire 1 . reset $end
$var reg 1 n Q $end
$upscope $end
$upscope $end
$scope module U9 $end
$var wire 1 , clk $end
$var wire 1 o enabled $end
$var wire 1 p notQ $end
$var wire 1 . reset $end
$var wire 1 $ Q $end
$scope module U1 $end
$var wire 1 p D $end
$var wire 1 , clk $end
$var wire 1 o enabled $end
$var wire 1 . reset $end
$var reg 1 $ Q $end
$upscope $end
$upscope $end
$upscope $end
$upscope $end
$enddefinitions $end
#0
$dumpvars
xp
1o
xn
xm
xl
xk
bx j
bx i
bx h
bx g
bx f
bx e
bx d
bx c
bx b
bx a
bx `
bx _
bx ^
bx ]
x\
bx [
bx Z
bx Y
bx X
b110 W
bx V
bx U
bx T
bx S
bx R
bx Q
bx P
bx O
bx N
bx M
bx L
bx K
xJ
xI
xH
bx G
bx F
bx E
xD
xC
bx B
xA
bx @
x?
x>
x=
x<
x;
x:
x9
bx 8
bx 7
x6
x5
b110 4
bx 3
b0 2
b100010100 1
b1010010000 0
b10000 /
0.
b110 -
0,
bx +
bx *
bx )
bx (
x'
bx &
bx %
x$
bx #
x"
bx !
$end
#2
1k
15
b0 !
b0 3
b0 S
b0 U
b0 X
b0 _
b0 `
b0 b
0m
b0 E
b0 a
b0 d
b0 g
b1 i
0D
0=
09
0:
1;
06
0C
0J
0I
b0 c
0H
0>
0?
0<
1A
b0 %
b0 8
b0 ^
b0 &
b0 @
b0 f
b1000000001000 P
b1000000001000 Q
b1001111 (
b1001111 F
b1001111 M
b1001111 R
b1001111 #
b1001111 7
b1001111 Z
b1001111 [
b0 *
b0 K
b0 N
b0 Y
b0 B
b0 ]
b0 )
b0 G
b0 e
b0 h
b0 +
b0 L
b0 V
0'
0"
1p
1\
0n
b0 j
0l
b0 O
0$
1.
#3
0.
#5
0k
b0 i
05
b1111 E
b1111 a
b1111 d
b1111 g
b1111 f
b1111 !
b1111 3
b1111 S
b1111 U
b1111 X
b1111 _
b1111 `
b1111 b
19
0;
b10 c
1I
1>
1?
0A
b11010000010 P
b11010000010 Q
b1111 %
b1111 8
b1111 ^
b100 &
b100 @
b1001111 B
b1001111 ]
b111111011111 (
b111111011111 F
b111111011111 M
b111111011111 R
b11011111 #
b11011111 7
b11011111 Z
b11011111 [
b1 *
b1 K
b1 N
b1 Y
0p
0\
b100001 O
1$
1,
#10
0,
#15
09
1;
b0 c
0I
0>
0?
1A
b1000000001000 P
b1000000001000 Q
b1111 )
b1111 G
b1111 e
b1111 h
1p
1\
b100000 O
0$
1,
#16
b1000110 2
#20
0,
#25
1=
b1111 !
b1111 3
b1111 S
b1111 U
b1111 X
b1111 _
b1111 `
b1111 b
09
1;
b0 c
0I
0>
0?
0A
b1101 &
b1101 @
b1001 P
b1001 Q
b11011111 B
b11011111 ]
b111101010001 (
b111101010001 F
b111101010001 M
b111101010001 R
b1010001 #
b1010001 7
b1010001 Z
b1010001 [
b10 *
b10 K
b10 N
b10 Y
0p
0\
b1101001 O
1$
1,
#30
0,
#35
0=
1A
b1000000001000 P
b1000000001000 Q
b1111 +
b1111 L
b1111 V
1p
1\
b1101000 O
0$
1,
#36
b1100111 2
#40
0,
#45
b110 E
b110 a
b110 d
b110 g
b110 f
b110 !
b110 3
b110 S
b110 U
b110 X
b110 _
b110 `
b110 b
1:
0;
b10 c
1I
1>
1?
0=
0A
b1 %
b1 8
b1 ^
b101 &
b101 @
b11010000100 P
b11010000100 Q
b1010001 B
b1010001 ]
b101000000 (
b101000000 F
b101000000 M
b101000000 R
b1000000 #
b1000000 7
b1000000 Z
b1000000 [
b11 *
b11 K
b11 N
b11 Y
0p
0\
b101001 O
1$
1,
#50
0,
#55
0:
1;
b0 c
0I
0>
0?
1A
b1000000001000 P
b1000000001000 Q
b110 )
b110 G
b110 e
b110 h
1p
1\
b101000 O
0$
1,
#56
b10001000 2
#60
0,
#65
1k
b1 i
15
b0 E
b0 a
b0 d
b0 g
b0 f
19
b0 !
b0 3
b0 S
b0 U
b0 X
b0 _
b0 `
b0 b
0:
0;
b10 c
1I
1>
1?
0A
b0 %
b0 8
b0 ^
b100 &
b100 @
b11010000010 P
b11010000010 Q
b1000000 B
b1000000 ]
b1001111 (
b1001111 F
b1001111 M
b1001111 R
b1001111 #
b1001111 7
b1001111 Z
b1001111 [
b100 *
b100 K
b100 N
b100 Y
0p
0\
b100001 O
1$
1,
#70
0,
#75
09
1;
b0 c
0I
0>
0?
1A
b1000000001000 P
b1000000001000 Q
b0 )
b0 G
b0 e
b0 h
1"
1p
1\
b1 j
1l
b100010 O
0$
1,
#80
0,
#85
0k
b0 i
05
b1111 E
b1111 a
b1111 d
b1111 g
b1111 f
b1111 !
b1111 3
b1111 S
b1111 U
b1111 X
b1111 _
b1111 `
b1111 b
19
0;
b10 c
1I
1>
1?
0A
b1111 %
b1111 8
b1111 ^
b11010000010 P
b11010000010 Q
b1001111 B
b1001111 ]
b111110101010 (
b111110101010 F
b111110101010 M
b111110101010 R
b10101010 #
b10101010 7
b10101010 Z
b10101010 [
b101 *
b101 K
b101 N
b101 Y
0p
0\
b100011 O
1$
1,
#90
0,
#95
09
1;
b0 c
0I
0>
0?
1A
b1000000001000 P
b1000000001000 Q
b1111 )
b1111 G
b1111 e
b1111 h
0"
1p
1\
b0 j
0l
b100000 O
0$
1,
#100
0,
#105
1m
b10 i
1D
1J
b1001 E
b1001 a
b1001 d
b1001 g
b11001 f
b1010 !
b1010 3
b1010 S
b1010 U
b1010 X
b1010 _
b1010 `
b1010 b
19
0;
b11 c
1I
1>
1?
0A
b1010 %
b1010 8
b1010 ^
b1010 &
b1010 @
b11011000010 P
b11011000010 Q
b10101010 B
b10101010 ]
b101000101000 (
b101000101000 F
b101000101000 M
b101000101000 R
b101000 #
b101000 7
b101000 Z
b101000 [
b110 *
b110 K
b110 N
b110 Y
0p
0\
b1010001 O
1$
1,
#110
0,
#115
0m
b0 i
0D
b1001 !
b1001 3
b1001 S
b1001 U
b1001 X
b1001 _
b1001 `
b1001 b
b1001 E
b1001 a
b1001 d
b1001 g
09
1;
0J
b0 c
0I
0>
0?
1A
b1001 f
b1000000001000 P
b1000000001000 Q
b1001 )
b1001 G
b1001 e
b1001 h
1'
1p
1\
b10 j
1n
b1010100 O
0$
1,
#116
b10101001 2
#120
0,
#125
0m
b1 E
b1 a
b1 d
b1 g
b0 i
0D
b1000 !
b1000 3
b1000 S
b1000 U
b1000 X
b1000 _
b1000 `
b1000 b
b1 f
19
0;
1J
b1 c
0I
1>
0?
0A
b1000 %
b1000 8
b1000 ^
b10 &
b10 @
b1001000010 P
b1001000010 Q
b101000 B
b101000 ]
b100001001010 (
b100001001010 F
b100001001010 M
b100001001010 R
b1001010 #
b1001010 7
b1001010 Z
b1001010 [
b111 *
b111 K
b111 N
b111 Y
0p
0\
b10101 O
1$
1,
#130
0,
#135
b1001 E
b1001 a
b1001 d
b1001 g
b1001 !
b1001 3
b1001 S
b1001 U
b1001 X
b1001 _
b1001 `
b1001 b
b1001 f
09
1;
b0 c
0J
0>
1A
b1000000001000 P
b1000000001000 Q
0'
1p
1\
b0 j
0n
b10000 O
0$
1,
#136
b11001010 2
#140
0,
#145
1I
1?
0m
b0 i
0D
b1010 E
b1010 a
b1010 d
b1010 g
b1010 !
b1010 3
b1010 S
b1010 U
b1010 X
b1010 _
b1010 `
b1010 b
b1010 f
19
0;
b10 c
0J
1>
0A
b1010 %
b1010 8
b1010 ^
b100 &
b100 @
b11010000010 P
b11010000010 Q
b1001010 B
b1001010 ]
b101000101100 (
b101000101100 F
b101000101100 M
b101000101100 R
b101100 #
b101100 7
b101100 Z
b101100 [
b1000 *
b1000 K
b1000 N
b1000 Y
0p
0\
b100001 O
1$
1,
#150
0,
#155
09
1;
b0 c
0I
0>
0?
1A
b1000000001000 P
b1000000001000 Q
b1010 )
b1010 G
b1010 e
b1010 h
1p
1\
b100000 O
0$
1,
#160
0,
#165
1m
b10 i
1D
1J
b1110 E
b1110 a
b1110 d
b1110 g
b11110 f
b1100 !
b1100 3
b1100 S
b1100 U
b1100 X
b1100 _
b1100 `
b1100 b
19
0;
b1 c
0I
1>
0?
0A
b1100 %
b1100 8
b1100 ^
b10 &
b10 @
b1001000010 P
b1001000010 Q
b101100 B
b101100 ]
b110010100001 (
b110010100001 F
b110010100001 M
b110010100001 R
b10100001 #
b10100001 7
b10100001 Z
b10100001 [
b1001 *
b1001 K
b1001 N
b1001 Y
0p
0\
b10001 O
1$
1,
#170
0,
#175
0m
b1010 E
b1010 a
b1010 d
b1010 g
b0 i
0D
b1010 !
b1010 3
b1010 S
b1010 U
b1010 X
b1010 _
b1010 `
b1010 b
b1010 f
09
1;
b0 c
0J
0>
1A
b1000000001000 P
b1000000001000 Q
1'
1p
1\
b10 j
1n
b10100 O
0$
1,
#176
b11101011 2
#180
0,
#185
1I
1?
b1011 E
b1011 a
b1011 d
b1011 g
b1 !
b1 3
b1 S
b1 U
b1 X
b1 _
b1 `
b1 b
b1011 f
19
0;
b11 c
1J
1>
0A
b1 %
b1 8
b1 ^
b1010 &
b1010 @
b11011000010 P
b11011000010 Q
b10100001 B
b10100001 ]
b111101011 (
b111101011 F
b111101011 M
b111101011 R
b11101011 #
b11101011 7
b11101011 Z
b11101011 [
b1010 *
b1010 K
b1010 N
b1010 Y
0p
0\
b1010101 O
1$
1,
#190
0,
#195
b1011 !
b1011 3
b1011 S
b1011 U
b1011 X
b1011 _
b1011 `
b1011 b
b1011 E
b1011 a
b1011 d
b1011 g
09
1;
0J
b0 c
0I
0>
0?
1A
b1011 f
b1000000001000 P
b1000000001000 Q
b1011 )
b1011 G
b1011 e
b1011 h
0'
1p
1\
b0 j
0n
b1010000 O
0$
1,
#196
b100001100 2
#200
0,
#205
1H
0m
b100 E
b100 a
b100 d
b100 g
b0 i
0D
b1011 !
b1011 3
b1011 S
b1011 U
b1011 X
b1011 _
b1011 `
b1011 b
b100 f
19
0;
0J
b100 c
0I
1>
1?
0A
b1011 %
b1011 8
b1011 ^
b1110 &
b1110 @
b11100000010 P
b11100000010 Q
b11101011 B
b11101011 ]
b101111010000 (
b101111010000 F
b101111010000 M
b101111010000 R
b11010000 #
b11010000 7
b11010000 Z
b11010000 [
b1011 *
b1011 K
b1011 N
b1011 Y
0p
0\
b1110001 O
1$
1,
#210
0,
#215
b100 !
b100 3
b100 S
b100 U
b100 X
b100 _
b100 `
b100 b
b100 E
b100 a
b100 d
b100 g
09
1;
b0 c
0H
0>
0?
1A
b100 f
b1000000001000 P
b1000000001000 Q
b100 )
b100 G
b100 e
b100 h
1p
1\
b1110000 O
0$
1,
#216
b101001110 2
#220
0,
#225
1=
b100 E
b100 a
b100 d
b100 g
b100 !
b100 3
b100 S
b100 U
b100 X
b100 _
b100 `
b100 b
b100 f
09
1;
b0 c
0H
0>
0?
0A
b0 %
b0 8
b0 ^
b1101 &
b1101 @
b1001 P
b1001 Q
b11010000 B
b11010000 ]
b1010000 (
b1010000 F
b1010000 M
b1010000 R
b1010000 #
b1010000 7
b1010000 Z
b1010000 [
b1100 *
b1100 K
b1100 N
b1100 Y
0p
0\
b1101001 O
1$
1,
#230
0,
#235
0=
1A
b1000000001000 P
b1000000001000 Q
b100 +
b100 L
b100 V
1p
1\
b1101000 O
0$
1,
#236
b1110 -
b1110 4
b1110 W
b101101111 2
#240
0,
#245
b1110 E
b1110 a
b1110 d
b1110 g
b1110 f
b1110 !
b1110 3
b1110 S
b1110 U
b1110 X
b1110 _
b1110 `
b1110 b
1:
0;
b10 c
1I
1>
1?
0=
0A
b101 &
b101 @
b11010000100 P
b11010000100 Q
b1010000 B
b1010000 ]
b1110000 (
b1110000 F
b1110000 M
b1110000 R
b1110000 #
b1110000 7
b1110000 Z
b1110000 [
b1101 *
b1101 K
b1101 N
b1101 Y
0p
0\
b101001 O
1$
1,
#250
0,
#255
0:
1;
b0 c
0I
0>
0?
1A
b1000000001000 P
b1000000001000 Q
b1110 )
b1110 G
b1110 e
b1110 h
1p
1\
b101000 O
0$
1,
#256
b110010000 2
#260
0,
#265
16
1C
b1110 !
b1110 3
b1110 S
b1110 U
b1110 X
b1110 _
b1110 `
b1110 b
0:
1;
b0 c
0I
0>
0?
1A
b111 &
b111 @
b1000000111000 P
b1000000111000 Q
b1110000 B
b1110000 ]
b0 (
b0 F
b0 M
b0 R
b0 #
b0 7
b0 Z
b0 [
b1110 *
b1110 K
b1110 N
b1110 Y
0p
0\
b111001 O
1$
1,
#270
0,
#275
06
0C
b1000000001000 P
b1000000001000 Q
b1001111 (
b1001111 F
b1001111 M
b1001111 R
b1001111 #
b1001111 7
b1001111 Z
b1001111 [
b1111 *
b1111 K
b1111 N
b1111 Y
1p
1\
b111000 O
0$
1,
#280
0,
#285
b1111 E
b1111 a
b1111 d
b1111 g
b1111 f
19
0;
b10 c
1I
1>
1?
0A
b1111 !
b1111 3
b1111 S
b1111 U
b1111 X
b1111 _
b1111 `
b1111 b
06
0C
b1111 %
b1111 8
b1111 ^
b100 &
b100 @
b11010000010 P
b11010000010 Q
b1001111 B
b1001111 ]
b111101110001 (
b111101110001 F
b111101110001 M
b111101110001 R
b1110001 #
b1110001 7
b1110001 Z
b1110001 [
b10000 *
b10000 K
b10000 N
b10000 Y
0p
0\
b100001 O
1$
1,
#290
0,
#295
09
1;
b0 c
0I
0>
0?
1A
b1000000001000 P
b1000000001000 Q
b1111 )
b1111 G
b1111 e
b1111 h
1p
1\
b100000 O
0$
1,
#300
0,
#305
16
1C
b1111 E
b1111 a
b1111 d
b1111 g
b1111 f
b1111 !
b1111 3
b1111 S
b1111 U
b1111 X
b1111 _
b1111 `
b1111 b
09
1;
b0 c
0I
0>
0?
1A
b1 %
b1 8
b1 ^
b111 &
b111 @
b1000000111000 P
b1000000111000 Q
b1110001 B
b1110001 ]
b100010001 (
b100010001 F
b100010001 M
b100010001 R
b10001 #
b10001 7
b10001 Z
b10001 [
b10001 *
b10001 K
b10001 N
b10001 Y
0p
0\
b111001 O
1$
1,
#310
0,
#315
06
0C
b1000000001000 P
b1000000001000 Q
b101001010 (
b101001010 F
b101001010 M
b101001010 R
b1001010 #
b1001010 7
b1001010 Z
b1001010 [
b10010 *
b10010 K
b10010 N
b10010 Y
1p
1\
b111000 O
0$
1,
#320
0,
#325
b1010 E
b1010 a
b1010 d
b1010 g
b1010 f
19
0;
b10 c
1I
1>
1?
0A
b1010 !
b1010 3
b1010 S
b1010 U
b1010 X
b1010 _
b1010 `
b1010 b
06
0C
b1010 %
b1010 8
b1010 ^
b100 &
b100 @
b11010000010 P
b11010000010 Q
b1001010 B
b1001010 ]
b101001110010 (
b101001110010 F
b101001110010 M
b101001110010 R
b1110010 #
b1110010 7
b1110010 Z
b1110010 [
b10011 *
b10011 K
b10011 N
b10011 Y
0p
0\
b100001 O
1$
1,
#330
0,
#335
09
1;
b0 c
0I
0>
0?
1A
b1000000001000 P
b1000000001000 Q
b1010 )
b1010 G
b1010 e
b1010 h
1p
1\
b100000 O
0$
1,
#340
0,
#345
16
1C
b1010 E
b1010 a
b1010 d
b1010 g
b1010 f
b1010 !
b1010 3
b1010 S
b1010 U
b1010 X
b1010 _
b1010 `
b1010 b
09
1;
b0 c
0I
0>
0?
1A
b10 %
b10 8
b10 ^
b111 &
b111 @
b1000000111000 P
b1000000111000 Q
b1110010 B
b1110010 ]
b1000100010 (
b1000100010 F
b1000100010 M
b1000100010 R
b100010 #
b100010 7
b100010 Z
b100010 [
b10100 *
b10100 K
b10100 N
b10100 Y
0p
0\
b111001 O
1$
1,
#350
0,
#355
06
0C
b1000000001000 P
b1000000001000 Q
b1001000001 (
b1001000001 F
b1001000001 M
b1001000001 R
b1000001 #
b1000001 7
b1000001 Z
b1000001 [
b10101 *
b10101 K
b10101 N
b10101 Y
1p
1\
b111000 O
0$
1,
#360
0,
#365
b1 E
b1 a
b1 d
b1 g
b1 f
19
0;
b10 c
1I
1>
1?
0A
b1 !
b1 3
b1 S
b1 U
b1 X
b1 _
b1 `
b1 b
06
0C
b1 %
b1 8
b1 ^
b100 &
b100 @
b11010000010 P
b11010000010 Q
b1000001 B
b1000001 ]
b101110011 (
b101110011 F
b101110011 M
b101110011 R
b1110011 #
b1110011 7
b1110011 Z
b1110011 [
b10110 *
b10110 K
b10110 N
b10110 Y
0p
0\
b100001 O
1$
1,
#370
0,
#375
09
1;
b0 c
0I
0>
0?
1A
b1000000001000 P
b1000000001000 Q
b1 )
b1 G
b1 e
b1 h
1p
1\
b100000 O
0$
1,
#380
0,
#385
16
1C
b1 E
b1 a
b1 d
b1 g
b1 f
b1 !
b1 3
b1 S
b1 U
b1 X
b1 _
b1 `
b1 b
09
1;
b0 c
0I
0>
0?
1A
b11 %
b11 8
b11 ^
b111 &
b111 @
b1000000111000 P
b1000000111000 Q
b1110011 B
b1110011 ]
b1100110011 (
b1100110011 F
b1100110011 M
b1100110011 R
b110011 #
b110011 7
b110011 Z
b110011 [
b10111 *
b10111 K
b10111 N
b10111 Y
0p
0\
b111001 O
1$
1,
#390
0,
#395
06
0C
b1000000001000 P
b1000000001000 Q
b1101100000 (
b1101100000 F
b1101100000 M
b1101100000 R
b1100000 #
b1100000 7
b1100000 Z
b1100000 [
b11000 *
b11000 K
b11000 N
b11000 Y
1p
1\
b111000 O
0$
1,
#400
0,
#405
0k
b0 i
05
b1 E
b1 a
b1 d
b1 g
b1 f
b1 T
0;
b10 c
1I
1>
1?
b1 !
b1 3
b1 S
b1 U
b1 X
b1 _
b1 `
b1 b
06
1C
b0 %
b0 8
b0 ^
b110 &
b110 @
b1011010100000 P
b1011010100000 Q
b1100000 B
b1100000 ]
b0 (
b0 F
b0 M
b0 R
b0 #
b0 7
b0 Z
b0 [
b11001 *
b11001 K
b11001 N
b11001 Y
0p
0\
b110001 O
1$
1,
#410
0,
#415
b1 !
b1 3
b1 S
b1 U
b1 X
b1 _
b1 `
b1 b
1;
0C
b0 c
0I
0>
0?
bx T
b1000000001000 P
b1000000001000 Q
b1100001 (
b1100001 F
b1100001 M
b1100001 R
b1100001 #
b1100001 7
b1100001 Z
b1100001 [
b11010 *
b11010 K
b11010 N
b11010 Y
1p
1\
b110000 O
0$
1,
#420
0,
#425
b1111 E
b1111 a
b1111 d
b1111 g
b1111 f
b1111 !
b1111 3
b1111 S
b1111 U
b1111 X
b1111 _
b1111 `
b1111 b
b1111 T
0;
1C
b10 c
1I
1>
1?
b1 %
b1 8
b1 ^
b1011010100000 P
b1011010100000 Q
b1100001 B
b1100001 ]
b100010001 (
b100010001 F
b100010001 M
b100010001 R
b10001 #
b10001 7
b10001 Z
b10001 [
b11011 *
b11011 K
b11011 N
b11011 Y
0p
0\
b110001 O
1$
1,
#430
0,
#435
b1111 !
b1111 3
b1111 S
b1111 U
b1111 X
b1111 _
b1111 `
b1111 b
1;
0C
b0 c
0I
0>
0?
bx T
b1000000001000 P
b1000000001000 Q
b101100010 (
b101100010 F
b101100010 M
b101100010 R
b1100010 #
b1100010 7
b1100010 Z
b1100010 [
b11100 *
b11100 K
b11100 N
b11100 Y
b1111 )
b1111 G
b1111 e
b1111 h
1p
1\
b110000 O
0$
1,
#440
0,
#445
b1010 E
b1010 a
b1010 d
b1010 g
b1010 f
b1010 !
b1010 3
b1010 S
b1010 U
b1010 X
b1010 _
b1010 `
b1010 b
b1010 T
0;
1C
b10 c
1I
1>
1?
b10 %
b10 8
b10 ^
b1011010100000 P
b1011010100000 Q
b1100010 B
b1100010 ]
b1000100010 (
b1000100010 F
b1000100010 M
b1000100010 R
b100010 #
b100010 7
b100010 Z
b100010 [
b11101 *
b11101 K
b11101 N
b11101 Y
0p
0\
b110001 O
1$
1,
#450
0,
#455
b1010 !
b1010 3
b1010 S
b1010 U
b1010 X
b1010 _
b1010 `
b1010 b
1;
0C
b0 c
0I
0>
0?
bx T
b1000000001000 P
b1000000001000 Q
b1001100011 (
b1001100011 F
b1001100011 M
b1001100011 R
b1100011 #
b1100011 7
b1100011 Z
b1100011 [
b11110 *
b11110 K
b11110 N
b11110 Y
b1010 )
b1010 G
b1010 e
b1010 h
1p
1\
b110000 O
0$
1,
#460
0,
#465
b1 E
b1 a
b1 d
b1 g
b1 f
b1 !
b1 3
b1 S
b1 U
b1 X
b1 _
b1 `
b1 b
b1 T
0;
1C
b10 c
1I
1>
1?
b11 %
b11 8
b11 ^
b1011010100000 P
b1011010100000 Q
b1100011 B
b1100011 ]
b1100110011 (
b1100110011 F
b1100110011 M
b1100110011 R
b110011 #
b110011 7
b110011 Z
b110011 [
b11111 *
b11111 K
b11111 N
b11111 Y
0p
0\
b110001 O
1$
1,
#470
0,
#475
b1 !
b1 3
b1 S
b1 U
b1 X
b1 _
b1 `
b1 b
1;
0C
b0 c
0I
0>
0?
bx T
b1000000001000 P
b1000000001000 Q
b1101001010 (
b1101001010 F
b1101001010 M
b1101001010 R
b1001010 #
b1001010 7
b1001010 Z
b1001010 [
b100000 *
b100000 K
b100000 N
b100000 Y
b1 )
b1 G
b1 e
b1 h
1p
1\
b110000 O
0$
1,
#476
b111100000 2
#480
0,
#485
19
0A
0k
b0 i
05
b1010 E
b1010 a
b1010 d
b1010 g
b1010 f
b1010 !
b1010 3
b1010 S
b1010 U
b1010 X
b1010 _
b1010 `
b1010 b
0;
0C
b10 c
1I
1>
1?
b1010 %
b1010 8
b1010 ^
b100 &
b100 @
b11010000010 P
b11010000010 Q
b1001010 B
b1001010 ]
b101011110010 (
b101011110010 F
b101011110010 M
b101011110010 R
b11110010 #
b11110010 7
b11110010 Z
b11110010 [
b100001 *
b100001 K
b100001 N
b100001 Y
0p
0\
b100001 O
1$
1,
#490
0,
#495
09
1;
b0 c
0I
0>
0?
1A
b1000000001000 P
b1000000001000 Q
b1010 )
b1010 G
b1010 e
b1010 h
1p
1\
b100000 O
0$
1,
#500
0,
#505
b1010 T
1C
1H
b101 E
b101 a
b101 d
b101 g
b101 f
b1010 !
b1010 3
b1010 S
b1010 U
b1010 X
b1010 _
b1010 `
b1010 b
09
0;
b100 c
0I
1>
1?
1A
b10 %
b10 8
b10 ^
b1111 &
b1111 @
b1011100100000 P
b1011100100000 Q
b11110010 B
b11110010 ]
b1000100010 (
b1000100010 F
b1000100010 M
b1000100010 R
b100010 #
b100010 7
b100010 Z
b100010 [
b100010 *
b100010 K
b100010 N
b100010 Y
0p
0\
b1111001 O
1$
1,
#510
0,
#515
b101 !
b101 3
b101 S
b101 U
b101 X
b101 _
b101 `
b101 b
b101 E
b101 a
b101 d
b101 g
1;
0C
b0 c
0H
0>
0?
bx T
b101 f
b1000000001000 P
b1000000001000 Q
b1001001111 (
b1001001111 F
b1001001111 M
b1001001111 R
b1001111 #
b1001111 7
b1001111 Z
b1001111 [
b100011 *
b100011 K
b100011 N
b100011 Y
b101 )
b101 G
b101 e
b101 h
1p
1\
b1111000 O
0$
1,
#516
b1000001000 2
#520
0,
#525
19
1I
0A
b1111 E
b1111 a
b1111 d
b1111 g
b1111 !
b1111 3
b1111 S
b1111 U
b1111 X
b1111 _
b1111 `
b1111 b
b1111 f
0;
0C
b10 c
0H
1>
1?
b1111 %
b1111 8
b1111 ^
b100 &
b100 @
b11010000010 P
b11010000010 Q
b1001111 B
b1001111 ]
b111110110011 (
b111110110011 F
b111110110011 M
b111110110011 R
b10110011 #
b10110011 7
b10110011 Z
b10110011 [
b100100 *
b100100 K
b100100 N
b100100 Y
0p
0\
b100001 O
1$
1,
#530
0,
#535
09
1;
b0 c
0I
0>
0?
1A
b1000000001000 P
b1000000001000 Q
b1111 )
b1111 G
b1111 e
b1111 h
1p
1\
b100000 O
0$
1,
#540
0,
#545
1k
15
1m
b11 i
1D
b1 T
1C
1J
b0 E
b0 a
b0 d
b0 g
b10000 f
b1 !
b1 3
b1 S
b1 U
b1 X
b1 _
b1 `
b1 b
09
0;
b11 c
1I
1>
1?
1A
b11 %
b11 8
b11 ^
b1011 &
b1011 @
b1011011100000 P
b1011011100000 Q
b10110011 B
b10110011 ]
b1100110011 (
b1100110011 F
b1100110011 M
b1100110011 R
b110011 #
b110011 7
b110011 Z
b110011 [
b100101 *
b100101 K
b100101 N
b100101 Y
0p
0\
b1011001 O
1$
1,
#550
0,
#555
1k
15
0m
b0 !
b0 3
b0 S
b0 U
b0 X
b0 _
b0 `
b0 b
b0 E
b0 a
b0 d
b0 g
b1 i
0D
1;
0C
0J
b0 c
0I
0>
0?
bx T
b0 f
b1000000001000 P
b1000000001000 Q
b1101001000 (
b1101001000 F
b1101001000 M
b1101001000 R
b1001000 #
b1001000 7
b1001000 Z
b1001000 [
b100110 *
b100110 K
b100110 N
b100110 Y
b0 )
b0 G
b0 e
b0 h
1'
1"
1p
1\
1n
b11 j
1l
b1011110 O
0$
1,
#556
b1000110000 2
#560
0,
#565
19
0A
0k
05
0m
b1000 E
b1000 a
b1000 d
b1000 g
b0 i
0D
b1000 f
b1000 !
b1000 3
b1000 S
b1000 U
b1000 X
b1000 _
b1000 `
b1000 b
0;
0C
0J
b10 c
1I
1>
1?
b1000 %
b1000 8
b1000 ^
b100 &
b100 @
b11010000010 P
b11010000010 Q
b1001000 B
b1001000 ]
b100000110010 (
b100000110010 F
b100000110010 M
b100000110010 R
b110010 #
b110010 7
b110010 Z
b110010 [
b100111 *
b100111 K
b100111 N
b100111 Y
0p
0\
b100111 O
1$
1,
#570
0,
#575
09
1;
b0 c
0I
0>
0?
1A
b1000000001000 P
b1000000001000 Q
b1000 )
b1000 G
b1000 e
b1000 h
0'
0"
1p
1\
0n
b0 j
0l
b100000 O
0$
1,
#580
0,
